…
Let’s atart with a for loop.

``` r
output = vector("list", length = 100)

for (i in 1:100) {
  
  output[[i]] = sim_mean_sd(sample_size = 30)
  
}

bind_rows(output)
```

    ## # A tibble: 100 x 2
    ##     mean    sd
    ##    <dbl> <dbl>
    ##  1  3.19  4.61
    ##  2  2.87  3.63
    ##  3  2.29  3.65
    ##  4  3.69  4.49
    ##  5  2.99  4.44
    ##  6  2.96  3.55
    ##  7  3.34  3.28
    ##  8  3.96  4.00
    ##  9  1.33  3.26
    ## 10  2.40  4.57
    ## # … with 90 more rows
…
